refV = 3931
0,  6.00,  6.62,  5.25,  8.81 
1,  40.94,  43.31,  4.25,  8.12 
2,  79.19,  80.38,  5.00,  7.06 
3,  117.75,  118.19,  5.75,  7.56 
4,  155.19,  158.06,  5.69,  7.69 
5,  194.50,  196.25,  5.44,  8.12 
6,  235.44,  235.44,  5.50,  7.56 
7,  275.00,  274.00,  5.75,  7.88 
8,  314.81,  315.88,  7.56,  7.62 
9,  354.69,  355.56,  6.25,  7.38 
10,  394.31,  393.19,  7.25,  7.94 
11,  432.12,  433.19,  6.88,  6.88 
12,  470.94,  471.69,  6.56,  7.38 
13,  508.88,  514.44,  7.00,  7.44 
14,  547.44,  550.69,  6.62,  7.69 
15,  586.12,  588.75,  7.56,  7.56 
16,  624.25,  627.00,  6.88,  7.06 
17,  665.31,  665.88,  7.50,  8.44 
18,  705.12,  707.50,  6.94,  5.81 
19,  745.81,  746.62,  6.50,  7.69 
20,  784.00,  785.62,  8.00,  7.62 
21,  823.31,  825.25,  7.00,  7.06 
22,  861.06,  863.38,  7.75,  9.06 
23,  898.12,  901.31,  6.94,  7.31 
24,  934.44,  938.75,  7.94,  7.75 
25,  972.19,  976.56,  7.56,  6.94 
26,  1014.06,  1015.81,  7.88,  7.38 
27,  1054.88,  1056.62,  7.88,  7.12 
28,  1098.25,  1097.94,  8.94,  6.69 
29,  1138.88,  1138.88,  9.00,  8.19 
30,  1177.00,  1177.88,  9.62,  6.94 
31,  1215.38,  1216.31,  10.00,  7.56 
32,  1253.75,  1255.31,  10.25,  7.56 
33,  1290.25,  1292.31,  10.19,  7.12 
34,  1327.31,  1328.69,  10.50,  7.12 
35,  1365.56,  1367.81,  10.50,  6.81 
36,  1404.44,  1407.06,  9.88,  7.19 
37,  1444.69,  1446.56,  9.56,  7.00 
38,  1491.44,  1488.56,  9.00,  7.44 
39,  1529.62,  1529.44,  8.50,  7.75 
40,  1569.69,  1570.12,  9.06,  6.94 
41,  1607.62,  1607.12,  11.38,  7.56 
42,  1644.69,  1646.00,  11.50,  8.38 
43,  1682.50,  1683.25,  10.88,  7.69 
44,  1718.81,  1720.25,  11.00,  8.00 
45,  1757.38,  1756.88,  10.88,  6.62 
46,  1795.56,  1794.62,  11.50,  7.12 
47,  1835.69,  1832.00,  11.50,  6.88 
48,  1878.25,  1878.50,  11.50,  6.69 
49,  1919.75,  1920.19,  12.00,  6.94 
50,  1961.00,  1959.88,  11.50,  7.56 
51,  1999.06,  1997.12,  12.31,  7.44 
52,  2037.94,  2035.94,  12.19,  7.31 
53,  2074.44,  2078.94,  12.19,  8.06 
54,  2111.44,  2112.94,  12.62,  7.81 
55,  2149.88,  2149.12,  12.38,  7.12 
56,  2187.38,  2186.25,  12.81,  7.06 
57,  2228.75,  2226.00,  11.75,  7.81 
58,  2270.12,  2268.00,  12.38,  7.44 
59,  2310.31,  2309.94,  12.25,  7.19 
60,  2349.31,  2348.69,  14.31,  7.69 
61,  2385.19,  2386.81,  14.44,  7.19 
62,  2423.25,  2425.25,  13.81,  7.56 
63,  2466.12,  2461.69,  13.69,  7.69 
64,  2502.94,  2498.81,  14.75,  7.56 
65,  2541.56,  2536.62,  13.75,  7.75 
66,  2577.94,  2576.12,  13.75,  7.12 
67,  2619.94,  2616.12,  12.75,  7.62 
68,  2661.00,  2657.56,  12.00,  7.44 
69,  2700.75,  2699.19,  12.06,  7.00 
70,  2740.81,  2737.62,  15.00,  7.56 
71,  2777.69,  2776.12,  15.56,  7.31 
72,  2816.31,  2814.06,  16.19,  8.25 
73,  2856.12,  2851.69,  16.94,  7.19 
74,  2894.50,  2889.94,  15.94,  7.31 
75,  2932.88,  2928.62,  15.69,  7.19 
76,  2971.94,  2967.75,  16.00,  7.12 
77,  3012.19,  3007.19,  14.50,  8.19 
78,  3051.62,  3048.00,  14.44,  6.50 
79,  3092.69,  3089.94,  13.69,  7.44 
80,  3132.25,  3128.50,  14.44,  7.69 
81,  3168.75,  3166.25,  14.38,  7.06 
82,  3208.19,  3203.81,  15.00,  9.31 
83,  3245.44,  3242.06,  14.88,  6.94 
84,  3284.31,  3280.75,  15.56,  7.31 
85,  3321.75,  3317.00,  16.69,  7.81 
86,  3360.88,  3357.00,  14.56,  6.94 
87,  3401.12,  3393.62,  15.75,  7.56 
88,  3440.25,  3438.12,  14.75,  7.12 
89,  3480.69,  3477.88,  14.12,  7.88 
90,  3520.00,  3517.06,  13.19,  7.25 
91,  3558.56,  3555.56,  13.56,  7.38 
92,  3597.62,  3594.81,  15.44,  7.31 
93,  3635.75,  3634.19,  16.38,  7.31 
94,  3673.69,  3672.25,  17.38,  7.81 
95,  3715.75,  3711.44,  18.19,  8.12 
96,  3754.88,  3751.06,  17.31,  7.69 
97,  3794.38,  3788.44,  18.19,  8.31 
98,  3832.94,  3829.31,  16.94,  7.56 
99,  3870.94,  3866.62,  18.06,  7.75 
100,  3891.75,  3883.38,  17.88,  7.75 
