refV = 3922
0,  2.69,  3.25,  3874.19,  4.06 
1,  39.62,  40.50,  3874.19,  4.06 
2,  76.75,  77.62,  3875.50,  3.50 
3,  116.25,  115.00,  3875.50,  3.94 
4,  154.06,  156.31,  3875.94,  3.50 
5,  193.44,  195.12,  3875.94,  3.62 
6,  233.19,  233.25,  3875.56,  3.69 
7,  272.75,  272.56,  3875.56,  3.38 
8,  312.31,  311.94,  3876.44,  3.56 
9,  352.38,  351.12,  3878.00,  3.50 
10,  392.50,  392.12,  3876.62,  3.75 
11,  429.25,  435.31,  3877.56,  3.38 
12,  469.75,  472.06,  3877.25,  3.50 
13,  507.69,  510.62,  3877.62,  3.12 
14,  545.94,  547.12,  3876.88,  4.25 
15,  584.56,  586.00,  3877.06,  3.75 
16,  623.62,  625.12,  3877.38,  3.50 
17,  662.25,  663.75,  3876.31,  3.38 
18,  703.88,  705.75,  3876.69,  3.50 
19,  743.12,  743.94,  3876.50,  3.12 
20,  783.44,  783.75,  3875.75,  3.88 
21,  822.00,  822.44,  3875.94,  4.12 
22,  860.50,  861.25,  3876.69,  5.62 
23,  897.88,  898.31,  3877.38,  10.50 
24,  935.25,  936.00,  3876.69,  22.38 
25,  971.69,  973.94,  3876.69,  43.62 
26,  1012.75,  1014.25,  3876.56,  87.75 
27,  1053.25,  1054.75,  3873.94,  168.31 
28,  1094.06,  1096.12,  3871.06,  300.25 
29,  1134.44,  1136.25,  3861.06,  503.25 
30,  1174.38,  1175.25,  3855.38,  792.19 
31,  1214.12,  1212.50,  3833.94,  1180.94 
32,  1250.88,  1250.00,  3807.50,  1687.12 
33,  1288.00,  1288.25,  3776.00,  2309.06 
34,  1324.00,  1326.00,  3739.00,  3019.19 
35,  1362.50,  1364.56,  3725.56,  3282.06 
36,  1408.00,  1404.12,  3722.50,  3322.62 
37,  1445.88,  1444.25,  3721.50,  3341.56 
38,  1484.69,  1484.50,  3720.31,  3353.25 
39,  1525.19,  1524.75,  3717.56,  3360.00 
40,  1564.88,  1563.50,  3720.56,  3365.75 
41,  1603.19,  1601.06,  3721.00,  3369.75 
42,  1642.00,  1638.81,  3721.56,  3371.88 
43,  1678.88,  1677.00,  3721.69,  3374.25 
44,  1714.88,  1716.50,  3722.56,  3376.94 
45,  1753.69,  1753.56,  3722.62,  3377.31 
46,  1791.88,  1791.56,  3721.62,  3378.75 
47,  1832.81,  1831.31,  3722.44,  3379.31 
48,  1874.56,  1875.00,  3721.44,  3380.62 
49,  1916.25,  1915.81,  3722.62,  3381.75 
50,  1956.38,  1953.88,  3721.25,  3381.62 
51,  1995.25,  1990.75,  3721.88,  3382.31 
52,  2034.12,  2028.19,  3722.62,  3382.81 
53,  2071.06,  2070.94,  3722.50,  3383.75 
54,  2107.12,  2109.88,  3722.88,  3383.31 
55,  2145.00,  2146.56,  3722.56,  3383.62 
56,  2183.56,  2184.62,  3723.69,  3384.25 
57,  2224.56,  2224.19,  3722.62,  3384.81 
58,  2265.88,  2263.69,  3722.06,  3385.19 
59,  2306.94,  2304.50,  3723.06,  3384.69 
60,  2346.94,  2343.00,  3722.44,  3385.25 
61,  2384.19,  2380.81,  3725.25,  3385.81 
62,  2422.50,  2418.00,  3723.81,  3385.56 
63,  2458.19,  2454.94,  3724.06,  3386.50 
64,  2496.38,  2493.19,  3725.38,  3385.81 
65,  2536.81,  2531.75,  3723.81,  3386.69 
66,  2574.62,  2572.38,  3724.38,  3386.50 
67,  2616.00,  2612.19,  3722.62,  3386.31 
68,  2656.44,  2652.31,  3723.00,  3387.19 
69,  2697.38,  2692.38,  3721.94,  3386.06 
70,  2736.75,  2731.62,  3720.38,  3386.69 
71,  2774.12,  2769.44,  3725.38,  3386.44 
72,  2813.75,  2807.81,  3727.44,  3387.75 
73,  2850.94,  2846.06,  3729.19,  3388.19 
74,  2888.75,  2882.75,  3727.50,  3386.94 
75,  2928.12,  2922.38,  3726.75,  3388.00 
76,  2967.00,  2962.94,  3727.31,  3387.06 
77,  3006.00,  3002.00,  3725.44,  3388.12 
78,  3046.38,  3042.25,  3724.38,  3386.44 
79,  3088.06,  3082.44,  3724.62,  3387.00 
80,  3127.06,  3121.69,  3724.38,  3387.31 
81,  3164.50,  3159.44,  3725.75,  3387.25 
82,  3204.19,  3197.69,  3725.12,  3387.62 
83,  3242.31,  3236.56,  3725.69,  3388.62 
84,  3279.50,  3274.12,  3725.88,  3387.19 
85,  3318.25,  3312.56,  3726.50,  3387.69 
86,  3356.38,  3352.12,  3726.25,  3387.00 
87,  3396.75,  3390.81,  3725.69,  3388.19 
88,  3435.75,  3428.94,  3725.25,  3388.69 
89,  3477.00,  3468.75,  3724.81,  3388.44 
90,  3515.38,  3509.94,  3723.19,  3387.75 
91,  3553.62,  3553.56,  3723.12,  3388.81 
92,  3592.31,  3589.81,  3726.81,  3388.62 
93,  3631.69,  3627.69,  3728.00,  3388.00 
94,  3670.69,  3666.38,  3728.56,  3388.81 
95,  3710.19,  3705.62,  3729.94,  3388.25 
96,  3748.56,  3744.56,  3728.00,  3388.44 
97,  3787.62,  3782.75,  3729.06,  3389.25 
98,  3827.19,  3822.56,  3728.38,  3388.75 
99,  3865.88,  3860.38,  3728.75,  3389.75 
100,  3885.12,  3878.12,  3730.31,  3390.38 
