refV = 3923
0,  4.44,  4.44,  3874.19,  5.00 
1,  40.88,  42.31,  3875.31,  4.81 
2,  76.38,  79.81,  3874.75,  5.62 
3,  115.31,  118.31,  3875.94,  4.88 
4,  153.00,  158.12,  3877.38,  4.62 
5,  190.56,  196.38,  3876.69,  4.88 
6,  232.94,  234.75,  3876.75,  5.00 
7,  273.00,  273.94,  3877.19,  4.69 
8,  313.81,  314.56,  3877.56,  5.94 
9,  352.81,  355.69,  3878.25,  5.25 
10,  392.06,  393.31,  3876.50,  5.50 
11,  429.62,  432.94,  3878.56,  4.38 
12,  469.38,  473.88,  3878.50,  4.62 
13,  507.25,  513.75,  3877.19,  5.12 
14,  545.44,  550.19,  3877.81,  5.44 
15,  583.88,  588.06,  3877.88,  4.50 
16,  622.25,  627.25,  3879.00,  5.12 
17,  663.12,  666.38,  3876.56,  5.31 
18,  702.75,  706.69,  3876.94,  4.81 
19,  743.69,  747.44,  3877.69,  5.50 
20,  782.62,  786.44,  3877.88,  5.12 
21,  821.56,  824.44,  3878.44,  4.50 
22,  859.06,  862.19,  3877.12,  7.12 
23,  896.06,  900.88,  3877.44,  11.88 
24,  933.19,  937.56,  3871.81,  22.38 
25,  968.75,  975.38,  3848.69,  44.00 
26,  1011.69,  1015.94,  3797.75,  88.50 
27,  1054.38,  1056.19,  3703.38,  167.88 
28,  1096.06,  1098.31,  3548.56,  298.31 
29,  1136.44,  1138.62,  3306.06,  498.62 
30,  1174.50,  1176.31,  2976.75,  786.94 
31,  1212.25,  1213.88,  2559.25,  1173.00 
32,  1250.88,  1251.75,  2002.81,  1676.31 
33,  1287.62,  1289.94,  1302.56,  2298.38 
34,  1324.38,  1327.50,  500.00,  3007.31 
35,  1362.00,  1366.12,  185.19,  3283.62 
36,  1400.25,  1406.12,  136.56,  3322.88 
37,  1444.88,  1445.75,  113.12,  3343.25 
38,  1486.56,  1486.56,  100.44,  3354.62 
39,  1525.31,  1526.25,  89.75,  3363.75 
40,  1565.38,  1566.19,  82.38,  3366.69 
41,  1603.44,  1603.06,  82.75,  3371.06 
42,  1641.38,  1641.88,  79.56,  3375.31 
43,  1678.62,  1680.38,  77.44,  3375.62 
44,  1715.00,  1717.81,  76.12,  3378.44 
45,  1753.25,  1755.06,  74.50,  3379.12 
46,  1791.25,  1793.75,  74.06,  3381.06 
47,  1832.44,  1831.00,  72.19,  3381.19 
48,  1874.44,  1872.00,  71.00,  3382.31 
49,  1915.62,  1916.31,  70.75,  3384.19 
50,  1955.81,  1955.88,  70.75,  3383.94 
51,  1994.56,  1992.69,  70.12,  3383.81 
52,  2033.06,  2034.69,  69.94,  3384.94 
53,  2070.56,  2075.38,  68.94,  3384.56 
54,  2106.69,  2109.25,  69.12,  3386.00 
55,  2145.31,  2147.44,  68.88,  3385.06 
56,  2183.00,  2185.25,  68.25,  3386.06 
57,  2223.62,  2224.75,  67.88,  3385.38 
58,  2265.94,  2264.25,  67.31,  3385.62 
59,  2306.50,  2306.19,  67.38,  3386.75 
60,  2344.56,  2345.62,  69.00,  3387.38 
61,  2381.75,  2382.94,  68.94,  3388.50 
62,  2419.56,  2420.75,  67.69,  3386.12 
63,  2459.38,  2457.19,  68.44,  3388.56 
64,  2498.12,  2495.25,  68.25,  3387.62 
65,  2536.00,  2533.44,  68.25,  3387.94 
66,  2573.12,  2573.69,  67.62,  3388.94 
67,  2615.50,  2614.44,  66.50,  3387.62 
68,  2655.94,  2653.88,  65.88,  3388.00 
69,  2696.19,  2694.69,  65.12,  3388.56 
70,  2735.88,  2733.50,  69.25,  3389.06 
71,  2772.50,  2770.94,  68.50,  3389.19 
72,  2811.12,  2809.56,  67.44,  3388.81 
73,  2849.69,  2846.62,  68.94,  3389.56 
74,  2888.38,  2884.44,  69.62,  3389.06 
75,  2928.38,  2923.50,  68.75,  3388.81 
76,  2965.88,  2963.56,  67.88,  3389.75 
77,  3007.69,  3003.62,  67.25,  3388.25 
78,  3046.50,  3043.06,  67.12,  3388.44 
79,  3088.00,  3085.06,  66.50,  3389.25 
80,  3126.38,  3122.06,  67.12,  3389.81 
81,  3163.38,  3161.25,  67.25,  3390.00 
82,  3203.94,  3199.12,  66.62,  3391.06 
83,  3241.19,  3237.81,  67.25,  3390.44 
84,  3279.12,  3275.44,  67.00,  3388.50 
85,  3316.00,  3311.88,  68.38,  3390.88 
86,  3354.94,  3350.94,  68.00,  3390.19 
87,  3395.69,  3389.19,  66.94,  3390.06 
88,  3435.81,  3431.44,  66.00,  3389.19 
89,  3476.06,  3472.81,  66.44,  3389.56 
90,  3515.50,  3511.81,  66.12,  3390.56 
91,  3553.00,  3550.75,  64.88,  3390.19 
92,  3592.38,  3590.56,  65.62,  3389.94 
93,  3630.00,  3629.88,  66.75,  3389.81 
94,  3668.81,  3668.25,  68.44,  3390.12 
95,  3710.38,  3706.62,  69.19,  3391.50 
96,  3748.00,  3746.25,  68.75,  3391.12 
97,  3788.75,  3783.56,  68.75,  3391.50 
98,  3827.75,  3824.06,  67.62,  3390.12 
99,  3865.38,  3862.88,  68.50,  3390.12 
100,  3885.44,  3877.75,  68.50,  3390.25 
